\relax 
\providecommand\babel@aux[2]{}
\@nameuse{bbl@beforestart}
\catcode `"\active 
\catcode `<\active 
\catcode `>\active 
\@nameuse{es@quoting}
\providecommand\hyper@newdestlabel[2]{}
\providecommand\HyperFirstAtBeginDocument{\AtBeginDocument}
\HyperFirstAtBeginDocument{\ifx\hyper@anchor\@undefined
\global\let\oldnewlabel\newlabel
\gdef\newlabel#1#2{\newlabelxx{#1}#2}
\gdef\newlabelxx#1#2#3#4#5#6{\oldnewlabel{#1}{{#2}{#3}}}
\AtEndDocument{\ifx\hyper@anchor\@undefined
\let\newlabel\oldnewlabel
\fi}
\fi}
\global\let\hyper@last\relax 
\gdef\HyperFirstAtBeginDocument#1{#1}
\providecommand\HyField@AuxAddToFields[1]{}
\providecommand\HyField@AuxAddToCoFields[2]{}
\babel@aux{spanish}{}
\@writefile{toc}{\contentsline {section}{\numberline {1}ZABBIX - INSTALACIÓN}{3}{section.1}\protected@file@percent }
\@writefile{toc}{\contentsline {subsection}{\numberline {1.1}Repositorio}{3}{subsection.1.1}\protected@file@percent }
\@writefile{toc}{\contentsline {subsubsection}{\numberline {1.1.1}Debian 12}{3}{subsubsection.1.1.1}\protected@file@percent }
\@writefile{lol}{\contentsline {lstlisting}{\numberline {1}zabbix repositorio}{3}{lstlisting.1}\protected@file@percent }
\@writefile{toc}{\contentsline {subsubsection}{\numberline {1.1.2}Ubuntu 24.04 noble}{3}{subsubsection.1.1.2}\protected@file@percent }
\@writefile{lol}{\contentsline {lstlisting}{\numberline {2}zabbix repositorio}{3}{lstlisting.2}\protected@file@percent }
\@writefile{toc}{\contentsline {subsection}{\numberline {1.2}Instalacion Zabbix server, frontend, agent}{3}{subsection.1.2}\protected@file@percent }
\@writefile{lol}{\contentsline {lstlisting}{\numberline {3}zabbix instalacion}{3}{lstlisting.3}\protected@file@percent }
\@writefile{toc}{\contentsline {subsection}{\numberline {1.3}Crear Base de Datos}{3}{subsection.1.3}\protected@file@percent }
\@writefile{lol}{\contentsline {lstlisting}{\numberline {4}Mysql Base de datos}{3}{lstlisting.4}\protected@file@percent }
\@writefile{lol}{\contentsline {lstlisting}{\numberline {5}zabbix script}{4}{lstlisting.5}\protected@file@percent }
\@writefile{lol}{\contentsline {lstlisting}{\numberline {6}Mysql}{4}{lstlisting.6}\protected@file@percent }
\@writefile{toc}{\contentsline {subsection}{\numberline {1.4}Configurar zabbix}{4}{subsection.1.4}\protected@file@percent }
\@writefile{lol}{\contentsline {lstlisting}{\numberline {7}zabbix passwordDB}{4}{lstlisting.7}\protected@file@percent }
\@writefile{toc}{\contentsline {subsection}{\numberline {1.5}Iniciar Zabbix server y Zabbix agent}{4}{subsection.1.5}\protected@file@percent }
\@writefile{lol}{\contentsline {lstlisting}{\numberline {8}zabbix Iniciar}{4}{lstlisting.8}\protected@file@percent }
\@writefile{toc}{\contentsline {subsection}{\numberline {1.6}LOCALE}{4}{subsection.1.6}\protected@file@percent }
\@writefile{lol}{\contentsline {lstlisting}{\numberline {9}Locale Español}{4}{lstlisting.9}\protected@file@percent }
\@writefile{toc}{\contentsline {section}{\numberline {2}CREAR HOST}{4}{section.2}\protected@file@percent }
\@writefile{lol}{\contentsline {lstlisting}{\numberline {10}zabbix Agentl}{4}{lstlisting.10}\protected@file@percent }
\@writefile{lol}{\contentsline {lstlisting}{\numberline {11}zabbix conf}{5}{lstlisting.11}\protected@file@percent }
\@writefile{lol}{\contentsline {lstlisting}{\numberline {12}openssl rand}{5}{lstlisting.12}\protected@file@percent }
\@writefile{toc}{\contentsline {section}{\numberline {3}DOCKER COMPOSE}{6}{section.3}\protected@file@percent }
\@writefile{lol}{\contentsline {lstlisting}{\numberline {13}Install docker-compose}{6}{lstlisting.13}\protected@file@percent }
\@writefile{lol}{\contentsline {lstlisting}{\numberline {14}docker compose}{6}{lstlisting.14}\protected@file@percent }
\@writefile{toc}{\contentsline {section}{\numberline {4}LOG}{10}{section.4}\protected@file@percent }
\gdef \@abspage@last{11}
