\babel@toc {spanish}{}\relax 
\contentsline {section}{\numberline {1}ZABBIX - INSTALACIÓN}{3}{section.1}%
\contentsline {subsection}{\numberline {1.1}Repositorio}{3}{subsection.1.1}%
\contentsline {subsubsection}{\numberline {1.1.1}Debian 12}{3}{subsubsection.1.1.1}%
\contentsline {subsubsection}{\numberline {1.1.2}Ubuntu 24.04 noble}{3}{subsubsection.1.1.2}%
\contentsline {subsection}{\numberline {1.2}Instalacion Zabbix server, frontend, agent}{3}{subsection.1.2}%
\contentsline {subsection}{\numberline {1.3}Crear Base de Datos}{3}{subsection.1.3}%
\contentsline {subsection}{\numberline {1.4}Configurar zabbix}{4}{subsection.1.4}%
\contentsline {subsection}{\numberline {1.5}Iniciar Zabbix server y Zabbix agent}{4}{subsection.1.5}%
\contentsline {subsection}{\numberline {1.6}LOCALE}{4}{subsection.1.6}%
\contentsline {section}{\numberline {2}CREAR HOST}{4}{section.2}%
\contentsline {section}{\numberline {3}DOCKER COMPOSE}{6}{section.3}%
\contentsline {section}{\numberline {4}LOG}{10}{section.4}%
